|-((P(a)->Q(a))->(P(a)->(?aQ(a))))
(Q(a)->(?aQ(a)))
(Q(a)->(?aQ(a)))->((P(a)->Q(a))->(Q(a)->(?aQ(a))))
(P(a)->Q(a))->(Q(a)->(?aQ(a)))
((Q(a)->(?aQ(a)))->(P(a)->(Q(a)->(?aQ(a)))))
((Q(a)->(?aQ(a)))->(P(a)->(Q(a)->(?aQ(a)))))->((P(a)->Q(a))->((Q(a)->(?aQ(a)))->(P(a)->(Q(a)->(?aQ(a))))))
(P(a)->Q(a))->((Q(a)->(?aQ(a)))->(P(a)->(Q(a)->(?aQ(a)))))
((P(a)->Q(a))->(Q(a)->(?aQ(a))))->(((P(a)->Q(a))->((Q(a)->(?aQ(a)))->(P(a)->(Q(a)->(?aQ(a))))))->((P(a)->Q(a))->(P(a)->(Q(a)->(?aQ(a))))))
(((P(a)->Q(a))->((Q(a)->(?aQ(a)))->(P(a)->(Q(a)->(?aQ(a))))))->((P(a)->Q(a))->(P(a)->(Q(a)->(?aQ(a))))))
(P(a)->Q(a))->(P(a)->(Q(a)->(?aQ(a))))
(P(a)->Q(a))->((P(a)->Q(a))->(P(a)->Q(a)))
((P(a)->Q(a))->((P(a)->Q(a))->(P(a)->Q(a))))->((P(a)->Q(a))->(((P(a)->Q(a))->(P(a)->Q(a)))->(P(a)->Q(a))))->((P(a)->Q(a))->(P(a)->Q(a)))
((P(a)->Q(a))->(((P(a)->Q(a))->(P(a)->Q(a)))->(P(a)->Q(a))))->((P(a)->Q(a))->(P(a)->Q(a)))
((P(a)->Q(a))->(((P(a)->Q(a))->(P(a)->Q(a)))->(P(a)->Q(a))))
(P(a)->Q(a))->(P(a)->Q(a))
((P(a)->Q(a))->((P(a)->(Q(a)->(?aQ(a))))->(P(a)->(?aQ(a)))))
((P(a)->Q(a))->((P(a)->(Q(a)->(?aQ(a))))->(P(a)->(?aQ(a)))))->((P(a)->Q(a))->((P(a)->Q(a))->((P(a)->(Q(a)->(?aQ(a))))->(P(a)->(?aQ(a))))))
(P(a)->Q(a))->((P(a)->Q(a))->((P(a)->(Q(a)->(?aQ(a))))->(P(a)->(?aQ(a)))))
((P(a)->Q(a))->(P(a)->Q(a)))->(((P(a)->Q(a))->((P(a)->Q(a))->((P(a)->(Q(a)->(?aQ(a))))->(P(a)->(?aQ(a))))))->((P(a)->Q(a))->((P(a)->(Q(a)->(?aQ(a))))->(P(a)->(?aQ(a))))))
(((P(a)->Q(a))->((P(a)->Q(a))->((P(a)->(Q(a)->(?aQ(a))))->(P(a)->(?aQ(a))))))->((P(a)->Q(a))->((P(a)->(Q(a)->(?aQ(a))))->(P(a)->(?aQ(a))))))
(P(a)->Q(a))->((P(a)->(Q(a)->(?aQ(a))))->(P(a)->(?aQ(a))))
((P(a)->Q(a))->(P(a)->(Q(a)->(?aQ(a)))))->(((P(a)->Q(a))->((P(a)->(Q(a)->(?aQ(a))))->(P(a)->(?aQ(a)))))->((P(a)->Q(a))->(P(a)->(?aQ(a)))))
(((P(a)->Q(a))->((P(a)->(Q(a)->(?aQ(a))))->(P(a)->(?aQ(a)))))->((P(a)->Q(a))->(P(a)->(?aQ(a)))))
(P(a)->Q(a))->(P(a)->(?aQ(a)))
