^D:\DOWNLOADS\PROG\C++\PROJECTS\33\X64\RELEASE\3.OBJ|D:\DOWNLOADS\PROG\C++\PROJECTS\33\X64\RELEASE\33.OBJ
D:\DOWNLOADS\PROG\C++\PROJECTS\33\X64\RELEASE\33.EXE
D:\DOWNLOADS\PROG\C++\PROJECTS\33\X64\RELEASE\33.EXE.INTERMEDIATE.MANIFEST
D:\DOWNLOADS\PROG\C++\PROJECTS\33\X64\RELEASE\33.PDB
