^D:\DOWNLOADS\PROG\C++\PROJECTS\33\X64\DEBUG\3.OBJ|D:\DOWNLOADS\PROG\C++\PROJECTS\33\X64\DEBUG\33.EXE.EMBED.MANIFEST.RES|D:\DOWNLOADS\PROG\C++\PROJECTS\33\X64\DEBUG\33.OBJ
/ERRORREPORT:PROMPT /OUT:"D:\Downloads\PROG\C++\Projects\33\x64\Debug\33.exe" /INCREMENTAL /NOLOGO kernel32.lib user32.lib gdi32.lib winspool.lib comdlg32.lib advapi32.lib shell32.lib ole32.lib oleaut32.lib uuid.lib odbc32.lib odbccp32.lib /MANIFEST /ManifestFile:"x64\Debug\33.exe.intermediate.manifest" /MANIFESTUAC:"level='asInvoker' uiAccess='false'" /DEBUG /PDB:"D:\Downloads\PROG\C++\Projects\33\x64\Debug\33.pdb" /SUBSYSTEM:CONSOLE /LARGEADDRESSAWARE:NO /TLBID:1 /DYNAMICBASE /NXCOMPAT /IMPLIB:"D:\Downloads\PROG\C++\Projects\33\x64\Debug\33.lib" /MACHINE:X64 x64\Debug\3.obj
x64\Debug\33.exe.embed.manifest.res
x64\Debug\33.obj
